<svg width="19" height="19" viewBox="0 0 22 22" fill="none" xmlns="http://www.w3.org/2000/svg">
<path d="M12 13.172L16.95 8.22198L18.364 9.63598L12 16L5.636 9.63598L7.05 8.22198L12 13.172Z" fill="#454545"/>
</svg>
